{
	"info": {
		"_postman_id": "952bae15-e85a-4b96-b16e-0bb935e2833e",
		"name": "CAPSTONE",
		"schema": "https://schema.getpostman.com/json/collection/v2.1.0/collection.json",
		"_exporter_id": "23544011",
		"_collection_link": "https://www.postman.com/grey-escape-361729/workspace/cit/collection/23544011-952bae15-e85a-4b96-b16e-0bb935e2833e?action=share&creator=23544011&source=collection_link"
	},
	"item": [
		{
			"name": "User",
			"item": [
				{
					"name": "User Registration",
					"request": {
						"method": "POST",
						"header": [],
						"body": {
							"mode": "raw",
							"raw": "{\r\n    \"username\": \"kirk\",\r\n    \"password\": \"kirk\"\r\n}",
							"options": {
								"raw": {
									"language": "json"
								}
							}
						},
						"url": {
							"raw": "localhost:8080/users/register",
							"host": [
								"localhost"
							],
							"port": "8080",
							"path": [
								"users",
								"register"
							]
						}
					},
					"response": []
				},
				{
					"name": "User Authentication",
					"request": {
						"method": "POST",
						"header": [],
						"body": {
							"mode": "raw",
							"raw": "{\r\n    \"username\": \"kirk\",\r\n    \"password\": \"kirk\"\r\n}",
							"options": {
								"raw": {
									"language": "json"
								}
							}
						},
						"url": {
							"raw": "localhost:8080/authenticate",
							"host": [
								"localhost"
							],
							"port": "8080",
							"path": [
								"authenticate"
							]
						}
					},
					"response": []
				}
			]
		},
		{
			"name": "Course",
			"item": [
				{
					"name": "Create Course",
					"request": {
						"method": "POST",
						"header": [
							{
								"key": "Authorization",
								"value": "eyJhbGciOiJIUzUxMiJ9.eyJzdWIiOiJraXJrIiwiZXhwIjoxNjgzMjE1MjE0LCJ1c2VyIjoxLCJpYXQiOjE2ODMxOTcyMTR9.F51DlHo0g21io-VirJRGAl-ndGQB3_UXMK6fSloNqDZSRZta5a7ism-HyyzyskDmxHKFwnwqOx1kDR3RvTKU9g",
								"type": "text"
							}
						],
						"body": {
							"mode": "raw",
							"raw": "{\r\n    \"name\": \"CSIT343\",\r\n    \"description\": \"Free-elective 4\",\r\n    \"price\": 1200.0\r\n}",
							"options": {
								"raw": {
									"language": "json"
								}
							}
						},
						"url": {
							"raw": "localhost:8080/course",
							"host": [
								"localhost"
							],
							"port": "8080",
							"path": [
								"course"
							]
						}
					},
					"response": []
				},
				{
					"name": "Get Courses",
					"request": {
						"method": "GET",
						"header": [
							{
								"key": "Authorization",
								"value": "eyJhbGciOiJIUzUxMiJ9.eyJzdWIiOiJwYW0iLCJleHAiOjE2ODI3NTc1OTYsInVzZXIiOjMsImlhdCI6MTY4MjczOTU5Nn0.oGjc8vKI5pdSXdN-tpivcEQxGx_fM5qwTmCV5J6DBrZPFuBrrPDO02obFQVgEJHZ1pNk_Yn2D462QqwIvKchPw",
								"type": "text"
							}
						],
						"url": {
							"raw": "localhost:8080/course",
							"host": [
								"localhost"
							],
							"port": "8080",
							"path": [
								"course"
							]
						}
					},
					"response": []
				},
				{
					"name": "New Request",
					"request": {
						"method": "PUT",
						"header": [
							{
								"key": "Authorization",
								"value": "eyJhbGciOiJIUzUxMiJ9.eyJzdWIiOiJraXJrIiwiZXhwIjoxNjgzMjE1MjE0LCJ1c2VyIjoxLCJpYXQiOjE2ODMxOTcyMTR9.F51DlHo0g21io-VirJRGAl-ndGQB3_UXMK6fSloNqDZSRZta5a7ism-HyyzyskDmxHKFwnwqOx1kDR3RvTKU9g",
								"type": "text"
							}
						],
						"body": {
							"mode": "raw",
							"raw": "{\r\n    \t\"name\":\"CSIT343\",\r\n    \t\"description\":\"Free-elective 4\",\r\n   \t    \"price\":2000.00\r\n\t}",
							"options": {
								"raw": {
									"language": "json"
								}
							}
						},
						"url": {
							"raw": "localhost:8080/course/3",
							"host": [
								"localhost"
							],
							"port": "8080",
							"path": [
								"course",
								"3"
							]
						}
					},
					"response": []
				},
				{
					"name": "Delete Course",
					"request": {
						"method": "DELETE",
						"header": [
							{
								"key": "Authorization",
								"value": "eyJhbGciOiJIUzUxMiJ9.eyJzdWIiOiJraXJrIiwiZXhwIjoxNjgzMjE1MjE0LCJ1c2VyIjoxLCJpYXQiOjE2ODMxOTcyMTR9.F51DlHo0g21io-VirJRGAl-ndGQB3_UXMK6fSloNqDZSRZta5a7ism-HyyzyskDmxHKFwnwqOx1kDR3RvTKU9g",
								"type": "text"
							}
						],
						"url": {
							"raw": "localhost:8080/course/2",
							"host": [
								"localhost"
							],
							"port": "8080",
							"path": [
								"course",
								"2"
							]
						}
					},
					"response": []
				}
			]
		}
	]
}